{
  "A": [
    0,
    4,
    3,
    1,
    6,
    7,
    3,
    5,
    3,
    6,
    6
  ],
  "B": [
    0,
    1,
    5,
    4,
    6,
    5,
    2,
    6,
    3,
    3,
    2
  ],
  "D": [
    0,
    3,
    2,
    6,
    1,
    7,
    3,
    2,
    5,
    2,
    7
  ],
  "E": [
    0,
    3,
    4,
    7,
    1,
    2,
    5,
    4,
    3,
    2,
    6
  ],
  "F": [
    0,
    4,
    4,
    4,
    4,
    4,
    4,
    4,
    4,
    4,
    4
  ],
  "G": [
    0,
    1,
    1,
    1,
    1,
    1,
    1,
    1,
    1,
    1,
    1
  ],
  "H": [
    0,
    7,
    7,
    7,
    7,
    7,
    7,
    7,
    7,
    7,
    7
  ]
}